0.jpg 2
1.jpg 2
2.jpg 3
3.jpg 3
4.jpg 2
5.jpg 3
6.jpg 3
7.jpg 2
8.jpg 3
9.jpg 0
10.jpg 3
11.jpg 2
12.jpg 2
13.jpg 3
14.jpg 3
15.jpg 2
16.jpg 2
17.jpg 3
18.jpg 2
19.jpg 3
20.jpg 2
21.jpg 3
22.jpg 2
23.jpg 3
24.jpg 2
25.jpg 3
26.jpg 2
27.jpg 2
28.jpg 3
29.jpg 2
30.jpg 2
31.jpg 3
32.jpg 2
33.jpg 3
34.jpg 2
35.jpg 3
36.jpg 2
37.jpg 3
38.jpg 2
39.jpg 3
40.jpg 2
41.jpg 3
42.jpg 2
43.jpg 3
44.jpg 2
45.jpg 2
46.jpg 3
47.jpg 2
48.jpg 2
49.jpg 2
50.jpg 2
51.jpg 2
52.jpg 2
53.jpg 2
54.jpg 2
55.jpg 2
56.jpg 2
57.jpg 2
58.jpg 2
59.jpg 2
60.jpg 2
61.jpg 2
62.jpg 2
63.jpg 2
64.jpg 2
65.jpg 2
66.jpg 2
67.jpg 2
68.jpg 2
69.jpg 2
70.jpg 2
71.jpg 2
72.jpg 2
73.jpg 2
74.jpg 2
75.jpg 2
76.jpg 3
77.jpg 2
78.jpg 3
79.jpg 2
80.jpg 2
81.jpg 2
82.jpg 3
83.jpg 3
84.jpg 2
85.jpg 2
86.jpg 2
87.jpg 3
88.jpg 3
89.jpg 2
90.jpg 2
91.jpg 2
92.jpg 2
93.jpg 3
94.jpg 2
95.jpg 3
96.jpg 3
97.jpg 3
98.jpg 3
99.jpg 3
100.jpg 3
101.jpg 3
102.jpg 3
103.jpg 2
104.jpg 3
105.jpg 3
106.jpg 3
107.jpg 3
108.jpg 3
109.jpg 3
110.jpg 3
111.jpg 3
112.jpg 3
113.jpg 3
114.jpg 3
115.jpg 2
116.jpg 3
117.jpg 3
118.jpg 3
119.jpg 3
120.jpg 3
121.jpg 3
122.jpg 1
123.jpg 2
124.jpg 1
125.jpg 1
126.jpg 1
127.jpg 2
128.jpg 2
129.jpg 3
130.jpg 3
131.jpg 2
132.jpg 2
133.jpg 3
134.jpg 2
135.jpg 2
136.jpg 2
137.jpg 3
138.jpg 2
139.jpg 3
140.jpg 3
141.jpg 3
142.jpg 3
143.jpg 3
144.jpg 3
145.jpg 3
146.jpg 3
147.jpg 3
148.jpg 2
149.jpg 2
150.jpg 2
151.jpg 2
152.jpg 2
153.jpg 0
154.jpg 0
155.jpg 0
156.jpg 0
157.jpg 0
158.jpg 0
159.jpg 1
160.jpg 1
161.jpg 2
162.jpg 1
163.jpg 2
164.jpg 2
165.jpg 1
166.jpg 2
167.jpg 2
168.jpg 1
169.jpg 1
170.jpg 2
171.jpg 1
172.jpg 2
173.jpg 1
174.jpg 2
175.jpg 2
176.jpg 1
177.jpg 2
178.jpg 1
179.jpg 1
180.jpg 2
181.jpg 1
182.jpg 1
183.jpg 2
184.jpg 2
185.jpg 1
186.jpg 2
187.jpg 2
188.jpg 2
189.jpg 2
190.jpg 1
191.jpg 2
192.jpg 2
193.jpg 2
194.jpg 2
195.jpg 2
196.jpg 2
197.jpg 0
198.jpg 0
199.jpg 2
200.jpg 0
201.jpg 2
202.jpg 0
203.jpg 2
204.jpg 0
205.jpg 0
206.jpg 2
207.jpg 2
208.jpg 0
209.jpg 2
210.jpg 0
211.jpg 0
212.jpg 2
213.jpg 0
214.jpg 2
215.jpg 0
216.jpg 2
217.jpg 0
218.jpg 0
219.jpg 2
220.jpg 0
221.jpg 2
222.jpg 2
223.jpg 2
224.jpg 2
225.jpg 2
226.jpg 2
227.jpg 2
228.jpg 2
229.jpg 2
230.jpg 2
231.jpg 0
232.jpg 2
233.jpg 2
234.jpg 1
235.jpg 2
236.jpg 1
237.jpg 2
238.jpg 1
239.jpg 2
240.jpg 1
241.jpg 2
242.jpg 1
243.jpg 2
244.jpg 1
245.jpg 1
246.jpg 1
247.jpg 2
248.jpg 2
249.jpg 1
250.jpg 1
251.jpg 1
252.jpg 1
253.jpg 1
254.jpg 2
255.jpg 2
256.jpg 2
257.jpg 2
258.jpg 2
259.jpg 2
260.jpg 2
261.jpg 2
262.jpg 2
263.jpg 2
264.jpg 2
265.jpg 2
266.jpg 2
267.jpg 2
268.jpg 2
269.jpg 2
270.jpg 2
271.jpg 2
272.jpg 2
273.jpg 2
274.jpg 2
275.jpg 2
276.jpg 2
277.jpg 2
278.jpg 2
279.jpg 2
280.jpg 2
281.jpg 2
282.jpg 2
283.jpg 2
284.jpg 2
285.jpg 2
286.jpg 2
287.jpg 2
288.jpg 2
289.jpg 2
290.jpg 2
291.jpg 2
292.jpg 2
293.jpg 2
294.jpg 2
295.jpg 2
296.jpg 2
297.jpg 2
298.jpg 2
299.jpg 2
300.jpg 2
301.jpg 2
302.jpg 2
303.jpg 2
304.jpg 2
305.jpg 2
306.jpg 2
307.jpg 2
308.jpg 2
309.jpg 2
310.jpg 2
311.jpg 2
312.jpg 2
313.jpg 2
314.jpg 2
315.jpg 2
316.jpg 2
317.jpg 2
318.jpg 2
319.jpg 2
320.jpg 2
321.jpg 2
322.jpg 2
323.jpg 2
324.jpg 2
325.jpg 2
326.jpg 2
327.jpg 2
328.jpg 2
329.jpg 1
330.jpg 1
331.jpg 1
332.jpg 1
333.jpg 1
334.jpg 1
335.jpg 1
336.jpg 1
337.jpg 1
338.jpg 1
339.jpg 1
340.jpg 1
341.jpg 1
342.jpg 1
343.jpg 1
344.jpg 1
345.jpg 1
346.jpg 1
347.jpg 1
348.jpg 1
349.jpg 1
350.jpg 1
351.jpg 1
352.jpg 1
353.jpg 1
354.jpg 1
355.jpg 1
356.jpg 1
357.jpg 1
358.jpg 1
359.jpg 1
360.jpg 1
361.jpg 1
362.jpg 1
363.jpg 1
364.jpg 1
365.jpg 1
366.jpg 1
367.jpg 1
368.jpg 1
369.jpg 1
370.jpg 1
371.jpg 1
372.jpg 1
373.jpg 1
374.jpg 1
375.jpg 1
376.jpg 1
377.jpg 1
378.jpg 1
379.jpg 1
380.jpg 1
381.jpg 1
382.jpg 1
383.jpg 1
384.jpg 1
385.jpg 1
386.jpg 1
387.jpg 1
388.jpg 1
389.jpg 1
390.jpg 1
391.jpg 1
392.jpg 1
393.jpg 1
394.jpg 1
395.jpg 1
396.jpg 1
397.jpg 1
398.jpg 1
399.jpg 1
400.jpg 1
401.jpg 1
402.jpg 1
403.jpg 1
404.jpg 1
405.jpg 1
406.jpg 1
407.jpg 1
408.jpg 1
409.jpg 1
410.jpg 1
411.jpg 1
412.jpg 1
413.jpg 1
414.jpg 1
415.jpg 1
416.jpg 1
417.jpg 1
418.jpg 1
419.jpg 1
420.jpg 1
421.jpg 1
422.jpg 1
423.jpg 1
424.jpg 1
425.jpg 1
426.jpg 1
427.jpg 1
428.jpg 1
429.jpg 1
430.jpg 1
431.jpg 1
432.jpg 1
433.jpg 1
434.jpg 1
435.jpg 1
436.jpg 1
437.jpg 1
438.jpg 1
439.jpg 1
440.jpg 1
441.jpg 1
442.jpg 1
443.jpg 1
444.jpg 1
445.jpg 0
446.jpg 0
447.jpg 0
448.jpg 0
449.jpg 0
450.jpg 0
451.jpg 0
452.jpg 0
453.jpg 0
454.jpg 0
455.jpg 0
456.jpg 0
457.jpg 0
458.jpg 0
459.jpg 0
460.jpg 0
461.jpg 0
462.jpg 0
463.jpg 0
464.jpg 0
465.jpg 0
466.jpg 0
467.jpg 0
468.jpg 0
469.jpg 0
470.jpg 0
471.jpg 0
472.jpg 0
473.jpg 0
474.jpg 0
475.jpg 0
476.jpg 0
477.jpg 0
478.jpg 0
479.jpg 0
480.jpg 0
481.jpg 0
482.jpg 0
483.jpg 0
484.jpg 3
485.jpg 3
486.jpg 3
487.jpg 3
488.jpg 3
489.jpg 3
490.jpg 3
491.jpg 3
492.jpg 3
493.jpg 3
494.jpg 3
495.jpg 3
496.jpg 3
497.jpg 3
498.jpg 3
499.jpg 3
500.jpg 3
501.jpg 3
502.jpg 3
503.jpg 3
504.jpg 3
505.jpg 3
506.jpg 3
507.jpg 3
508.jpg 3
509.jpg 3
510.jpg 3
511.jpg 3
512.jpg 3
513.jpg 3
514.jpg 3
515.jpg 3
516.jpg 3
517.jpg 3
518.jpg 3
519.jpg 3
520.jpg 3
521.jpg 3
522.jpg 3
523.jpg 3
524.jpg 3
525.jpg 3
526.jpg 3
527.jpg 3
528.jpg 3
529.jpg 3
530.jpg 3
531.jpg 3
532.jpg 3
533.jpg 3
534.jpg 3
535.jpg 3
536.jpg 3
537.jpg 3
538.jpg 3
539.jpg 3
540.jpg 3
541.jpg 3
542.jpg 3
543.jpg 3
544.jpg 3
545.jpg 3
546.jpg 3
547.jpg 3
548.jpg 3
549.jpg 1
550.jpg 1
551.jpg 2
552.jpg 1
553.jpg 1
554.jpg 2
555.jpg 1
556.jpg 1
557.jpg 1
558.jpg 1
559.jpg 1
560.jpg 2
561.jpg 1
562.jpg 1
563.jpg 2
564.jpg 2
565.jpg 1
566.jpg 2
567.jpg 1
568.jpg 2
569.jpg 1
570.jpg 2
571.jpg 1
572.jpg 1
573.jpg 1
574.jpg 1
575.jpg 2
576.jpg 2
577.jpg 1
578.jpg 1
579.jpg 1
580.jpg 1
581.jpg 1
582.jpg 3
583.jpg 0
584.jpg 3
585.jpg 0
586.jpg 3
587.jpg 0
588.jpg 3
589.jpg 0
590.jpg 0
591.jpg 3
592.jpg 0
593.jpg 0
594.jpg 3
595.jpg 0
596.jpg 0
597.jpg 2
598.jpg 1
599.jpg 2
600.jpg 1
601.jpg 2
602.jpg 1
603.jpg 0
604.jpg 0
605.jpg 0
606.jpg 3
607.jpg 2
608.jpg 1
609.jpg 2
610.jpg 2
611.jpg 1
612.jpg 2
613.jpg 1
614.jpg 0
615.jpg 2
616.jpg 2
617.jpg 1
618.jpg 2
619.jpg 1
620.jpg 2
621.jpg 1
622.jpg 2
623.jpg 1
624.jpg 2
625.jpg 1
626.jpg 2
627.jpg 1
628.jpg 2
629.jpg 1
630.jpg 2
631.jpg 1
632.jpg 2
633.jpg 1
634.jpg 1
635.jpg 2
636.jpg 1
637.jpg 2
638.jpg 2
639.jpg 1
640.jpg 2
641.jpg 1
642.jpg 1
643.jpg 2
644.jpg 1
645.jpg 2
646.jpg 1
647.jpg 1
648.jpg 1
649.jpg 1
650.jpg 2
651.jpg 2
652.jpg 1
653.jpg 1
654.jpg 2
655.jpg 2
656.jpg 1
657.jpg 2
658.jpg 1
659.jpg 2
660.jpg 1
661.jpg 1
662.jpg 2
663.jpg 2
664.jpg 1
665.jpg 2
666.jpg 1
668.jpg 2
669.jpg 1
670.jpg 1
671.jpg 2
672.jpg 0
673.jpg 2
674.jpg 1
675.jpg 2
676.jpg 1
677.jpg 1
678.jpg 1
679.jpg 2
680.jpg 2
681.jpg 1
682.jpg 1
683.jpg 2
684.jpg 1
685.jpg 2
686.jpg 2
687.jpg 2
688.jpg 2
689.jpg 2
690.jpg 2
691.jpg 1
692.jpg 1
693.jpg 2
694.jpg 1
695.jpg 2
696.jpg 1
697.jpg 1
698.jpg 2
699.jpg 2
700.jpg 2
701.jpg 2
702.jpg 2
703.jpg 3
704.jpg 3
705.jpg 3
706.jpg 0
707.jpg 0
708.jpg 3
709.jpg 3
710.jpg 0
711.jpg 0
712.jpg 0
713.jpg 0
714.jpg 0
715.jpg 0
716.jpg 3
717.jpg 3
718.jpg 0
719.jpg 0
720.jpg 3
721.jpg 0
722.jpg 0
723.jpg 2
724.jpg 2
725.jpg 2
726.jpg 2
727.jpg 2
728.jpg 2
729.jpg 2
730.jpg 2
731.jpg 2
732.jpg 2
733.jpg 2
734.jpg 2
735.jpg 2
736.jpg 2
737.jpg 2
738.jpg 2
739.jpg 2
740.jpg 0
741.jpg 2
742.jpg 0
743.jpg 2
744.jpg 2
745.jpg 0
746.jpg 2
747.jpg 0
748.jpg 2
749.jpg 0
750.jpg 2
751.jpg 0
752.jpg 0
753.jpg 2
754.jpg 3
755.jpg 0
756.jpg 0
757.jpg 2
758.jpg 3
759.jpg 3
760.jpg 3
761.jpg 3
762.jpg 3
763.jpg 3
764.jpg 2
765.jpg 3
766.jpg 3
767.jpg 3
768.jpg 3
769.jpg 3
770.jpg 3
771.jpg 3
772.jpg 3
773.jpg 3
774.jpg 3
775.jpg 3
776.jpg 3
777.jpg 3
778.jpg 2
779.jpg 3
780.jpg 3
781.jpg 3
782.jpg 3
783.jpg 3
784.jpg 3
785.jpg 3
786.jpg 3
787.jpg 2
788.jpg 3
789.jpg 3
790.jpg 3
791.jpg 3
792.jpg 3
793.jpg 3
794.jpg 3
795.jpg 3
796.jpg 2
797.jpg 3
798.jpg 3
799.jpg 3
800.jpg 3
801.jpg 3
802.jpg 3
803.jpg 3
804.jpg 3
805.jpg 3
806.jpg 3
807.jpg 2
808.jpg 3
809.jpg 3
810.jpg 2
811.jpg 3
812.jpg 3
814.jpg 3
815.jpg 3
816.jpg 3
817.jpg 3
818.jpg 3
819.jpg 3
820.jpg 3
821.jpg 3
822.jpg 3
823.jpg 3
824.jpg 3
825.jpg 2
826.jpg 3
827.jpg 3
828.jpg 2
829.jpg 2
830.jpg 3
831.jpg 3
832.jpg 3
833.jpg 3
834.jpg 3
835.jpg 3
836.jpg 3
837.jpg 3
838.jpg 3
839.jpg 3
840.jpg 3
841.jpg 2
842.jpg 3
843.jpg 3
844.jpg 3
845.jpg 3
846.jpg 3
847.jpg 0
848.jpg 0
849.jpg 0
850.jpg 0
851.jpg 2
852.jpg 0
853.jpg 2
854.jpg 2
855.jpg 2
856.jpg 2
857.jpg 2
858.jpg 2
859.jpg 2
860.jpg 0
861.jpg 2
862.jpg 0
863.jpg 0
864.jpg 2
865.jpg 2
866.jpg 0
867.jpg 2
868.jpg 2
869.jpg 0
870.jpg 3
871.jpg 2
872.jpg 0
873.jpg 2
874.jpg 0
875.jpg 2
876.jpg 0
877.jpg 2
878.jpg 2
879.jpg 2
880.jpg 2
881.jpg 2
882.jpg 2
883.jpg 2
884.jpg 2
885.jpg 2
886.jpg 2
887.jpg 2
888.jpg 2
889.jpg 2
890.jpg 2
891.jpg 2
892.jpg 2
893.jpg 2
894.jpg 2
895.jpg 0
896.jpg 0
897.jpg 0
898.jpg 0
899.jpg 2
900.jpg 2
901.jpg 2
902.jpg 2
903.jpg 2
904.jpg 2
905.jpg 2
906.jpg 2
907.jpg 1
908.jpg 2
909.jpg 2
910.jpg 2
911.jpg 2
912.jpg 2
913.jpg 2
914.jpg 2
915.jpg 2
916.jpg 2
917.jpg 2
918.jpg 0
919.jpg 0
920.jpg 2
921.jpg 0
922.jpg 2
923.jpg 2
924.jpg 0
925.jpg 2
926.jpg 2
927.jpg 2
928.jpg 2
929.jpg 0
930.jpg 0
931.jpg 2
932.jpg 3
933.jpg 2
934.jpg 0
935.jpg 2
936.jpg 0
937.jpg 2
938.jpg 0
939.jpg 2
940.jpg 0
941.jpg 2
942.jpg 0
943.jpg 0
944.jpg 2
945.jpg 2
946.jpg 2
947.jpg 2
948.jpg 0
949.jpg 2
950.jpg 0
951.jpg 3
952.jpg 3
953.jpg 1
954.jpg 3
955.jpg 1
956.jpg 2
957.jpg 3
958.jpg 2
959.jpg 1
960.jpg 1
961.jpg 3
962.jpg 2
963.jpg 3
964.jpg 3
965.jpg 1
966.jpg 1
967.jpg 3
968.jpg 3
969.jpg 1
970.jpg 3
971.jpg 1
972.jpg 3
973.jpg 1
974.jpg 3
975.jpg 1
976.jpg 2
977.jpg 1
978.jpg 3
979.jpg 3
980.jpg 1
981.jpg 2
982.jpg 3
983.jpg 1
984.jpg 2
985.jpg 1
986.jpg 2
987.jpg 3
988.jpg 1
989.jpg 2
990.jpg 1
991.jpg 2
992.jpg 1
993.jpg 2
994.jpg 3
995.jpg 1
996.jpg 2
997.jpg 1
998.jpg 2
999.jpg 3
1000.jpg 2
1001.jpg 1
1002.jpg 3
1003.jpg 1
1004.jpg 2
1005.jpg 1
1006.jpg 2
1007.jpg 3
1008.jpg 1
1009.jpg 2
1010.jpg 2
1011.jpg 1
1012.jpg 3
1013.jpg 3
1014.jpg 2
1015.jpg 1
1016.jpg 1
1017.jpg 2
1018.jpg 1
1019.jpg 3
1020.jpg 2
1021.jpg 1
1022.jpg 3
1023.jpg 2
1024.jpg 1
1025.jpg 2
1026.jpg 2
1027.jpg 1
1028.jpg 3
1029.jpg 3
1030.jpg 1
1031.jpg 3
1032.jpg 3
1033.jpg 1
1034.jpg 1
1035.jpg 3
1036.jpg 2
1037.jpg 3
1038.jpg 1
1039.jpg 1
1040.jpg 3
1041.jpg 2
1042.jpg 1
1043.jpg 3
1044.jpg 3
1045.jpg 2
1046.jpg 1
1047.jpg 2
1048.jpg 3
1049.jpg 1
1050.jpg 3
1051.jpg 3
1052.jpg 3
1053.jpg 3
1054.jpg 3
1055.jpg 3
1056.jpg 3
1057.jpg 3
1058.jpg 3
1059.jpg 3
1060.jpg 3
1061.jpg 3
1062.jpg 3
1063.jpg 3
1064.jpg 3
1065.jpg 3
1066.jpg 3
1067.jpg 3
1068.jpg 3
1069.jpg 3
1070.jpg 3
1071.jpg 3
1072.jpg 3
1073.jpg 3
1074.jpg 3
1075.jpg 3
1076.jpg 3
1077.jpg 3
1078.jpg 3
1079.jpg 3
1080.jpg 3
1081.jpg 3
1082.jpg 3
1083.jpg 3
1084.jpg 0
1085.jpg 3
1086.jpg 0
1087.jpg 3
1088.jpg 0
1089.jpg 3
1090.jpg 0
1091.jpg 3
1092.jpg 0
1093.jpg 3
1094.jpg 3
1095.jpg 3
1096.jpg 0
1097.jpg 3
1098.jpg 0
1099.jpg 3
1100.jpg 0
1101.jpg 3
1102.jpg 0
1103.jpg 3
1104.jpg 0
1105.jpg 3
1106.jpg 0
1107.jpg 3
1108.jpg 0
1109.jpg 3
1110.jpg 1
1111.jpg 0
1112.jpg 2
1113.jpg 3
1114.jpg 1
1115.jpg 0
1116.jpg 3
1117.jpg 1
1118.jpg 0
1119.jpg 2
1120.jpg 3
1121.jpg 1
1122.jpg 0
1123.jpg 2
1124.jpg 3
1125.jpg 3
1126.jpg 1
1127.jpg 0
1128.jpg 2
1129.jpg 3
1130.jpg 1
1131.jpg 0
1132.jpg 2
1133.jpg 3
1134.jpg 1
1135.jpg 0
1136.jpg 3
1137.jpg 1
1138.jpg 0
1139.jpg 3
1140.jpg 1
1141.jpg 0
1142.jpg 3
1143.jpg 1
1144.jpg 0
1145.jpg 3
1146.jpg 1
1147.jpg 0
1148.jpg 3
1149.jpg 1
1150.jpg 0
1151.jpg 3
1152.jpg 1
1153.jpg 0
1154.jpg 3
1155.jpg 1
1156.jpg 0
1157.jpg 3
1158.jpg 1
1159.jpg 0
1160.jpg 3
1161.jpg 3
1162.jpg 0
1163.jpg 3
1164.jpg 1
1165.jpg 0
1166.jpg 3
1167.jpg 1
1168.jpg 0
1169.jpg 3
1170.jpg 0
1171.jpg 3
1172.jpg 0
1173.jpg 3
1174.jpg 1
1175.jpg 0
1176.jpg 3
1177.jpg 1
1178.jpg 2
1179.jpg 3
1180.jpg 3
1181.jpg 0
1182.jpg 3
1183.jpg 0
1184.jpg 3
1185.jpg 0
1186.jpg 3
1187.jpg 1
1188.jpg 2
1189.jpg 3
1190.jpg 1
1191.jpg 2
1192.jpg 3
1193.jpg 0
1194.jpg 3
1195.jpg 1
1196.jpg 2
1197.jpg 3
1198.jpg 1
1199.jpg 2
1200.jpg 3
1201.jpg 1
1202.jpg 2
1203.jpg 3
1204.jpg 1
1205.jpg 2
1206.jpg 3
1207.jpg 1
1208.jpg 2
1209.jpg 2
1210.jpg 1
1211.jpg 3
1212.jpg 2
1213.jpg 1
1214.jpg 3
1215.jpg 2
1216.jpg 1
1217.jpg 3
1218.jpg 2
1219.jpg 1
1220.jpg 3
1221.jpg 0
1222.jpg 1
1223.jpg 3
1224.jpg 2
1225.jpg 2
1226.jpg 1
1227.jpg 3
1228.jpg 2
1229.jpg 1
1230.jpg 3
1231.jpg 2
1232.jpg 1
1233.jpg 3
1234.jpg 2
1235.jpg 1
1236.jpg 3
1237.jpg 2
1238.jpg 1
1239.jpg 3
1240.jpg 2
1241.jpg 1
1242.jpg 3
1243.jpg 2
1244.jpg 1
1245.jpg 3
1246.jpg 2
1247.jpg 1
1248.jpg 3
1249.jpg 0
1250.jpg 2
1251.jpg 1
1252.jpg 3
1253.jpg 3
1254.jpg 1
1255.jpg 2
1256.jpg 2
1257.jpg 1
1258.jpg 3
1259.jpg 2
1260.jpg 1
1261.jpg 3
1262.jpg 1
1263.jpg 3
1264.jpg 2
1265.jpg 1
1266.jpg 3
1267.jpg 2
1268.jpg 2
1269.jpg 1
1270.jpg 3
1271.jpg 3
1272.jpg 1
1273.jpg 2
1274.jpg 3
1275.jpg 1
1276.jpg 2
1277.jpg 3
1278.jpg 1
1279.jpg 2
1280.jpg 3
1281.jpg 1
1282.jpg 2
1283.jpg 1
1284.jpg 2
1285.jpg 1
1286.jpg 3
1287.jpg 2
1288.jpg 3
1289.jpg 1
1290.jpg 2
1291.jpg 2
1292.jpg 1
1293.jpg 3
1294.jpg 3
1295.jpg 1
1296.jpg 2
1297.jpg 1
1298.jpg 3
1299.jpg 2
1300.jpg 1
1301.jpg 3
1302.jpg 2
1303.jpg 3
1304.jpg 1
1305.jpg 2
1306.jpg 1
1307.jpg 3
1308.jpg 2
1309.jpg 3
1310.jpg 1
1311.jpg 2
1312.jpg 1
1313.jpg 2
1314.jpg 3
1315.jpg 1
1316.jpg 2
1317.jpg 0
1318.jpg 0
1319.jpg 3
1320.jpg 0
1321.jpg 1
1322.jpg 3
1323.jpg 3
1324.jpg 1
1325.jpg 0
1326.jpg 3
1327.jpg 0
1328.jpg 3
1329.jpg 2
1330.jpg 1
1331.jpg 0
1332.jpg 3
1333.jpg 0
1334.jpg 0
1335.jpg 0
1336.jpg 0
1337.jpg 3
1338.jpg 0
1339.jpg 0
1340.jpg 0
1341.jpg 0
1342.jpg 0
1343.jpg 1
1344.jpg 2
1345.jpg 0
1346.jpg 3
1347.jpg 0
1348.jpg 3
1349.jpg 0
1350.jpg 0
1351.jpg 0
1352.jpg 0
1353.jpg 0
1354.jpg 0
1355.jpg 0
1356.jpg 0
1357.jpg 2
1358.jpg 1
1359.jpg 0
1360.jpg 0
1361.jpg 0
1362.jpg 0
1363.jpg 2
1364.jpg 0
1365.jpg 0
1366.jpg 0
1367.jpg 0
1368.jpg 0
1369.jpg 2
1370.jpg 2
1371.jpg 1
1372.jpg 0
1373.jpg 2
1374.jpg 0
1375.jpg 2
1376.jpg 0
1377.jpg 2
1378.jpg 0
1379.jpg 2
1380.jpg 0
1381.jpg 2
1382.jpg 0
1383.jpg 2
1384.jpg 0
1385.jpg 2
1386.jpg 1
1387.jpg 1
1388.jpg 2
1389.jpg 1
1390.jpg 3
1391.jpg 0
1392.jpg 2
1393.jpg 1
1394.jpg 1
1395.jpg 1
1396.jpg 1
1397.jpg 1
1398.jpg 1
1399.jpg 1
1400.jpg 1
1401.jpg 1
1402.jpg 1
1403.jpg 1
1404.jpg 1
1405.jpg 1
1406.jpg 1
1407.jpg 1
1408.jpg 1
1409.jpg 1
1410.jpg 1
1411.jpg 1
1412.jpg 1
1413.jpg 1
1414.jpg 1
1415.jpg 1
1416.jpg 1
1417.jpg 1
1419.jpg 1
1420.jpg 1
1421.jpg 1
1422.jpg 1
1423.jpg 1
1424.jpg 1
1425.jpg 1
1426.jpg 1
1427.jpg 1
1428.jpg 1
1429.jpg 1
1430.jpg 1
1431.jpg 1
1432.jpg 1
1433.jpg 1
1434.jpg 1
1435.jpg 1
1436.jpg 1
1437.jpg 1
1438.jpg 1
1439.jpg 1
1440.jpg 1
1441.jpg 1
1442.jpg 1
1443.jpg 1
1444.jpg 1
1445.jpg 1
1446.jpg 1
1447.jpg 1
1448.jpg 1
1449.jpg 1
1450.jpg 1
1451.jpg 1
1452.jpg 1
1453.jpg 1
1454.jpg 1
1455.jpg 1
1456.jpg 1
1457.jpg 1
1458.jpg 1
1459.jpg 1
1460.jpg 1
1461.jpg 1
1462.jpg 1
1463.jpg 1
1464.jpg 1
1465.jpg 1
1466.jpg 1
1467.jpg 1
1468.jpg 1
1469.jpg 1
1470.jpg 1
1471.jpg 1
1472.jpg 1
1473.jpg 1
1474.jpg 1
1475.jpg 1
1476.jpg 1
1477.jpg 1
1478.jpg 1
1479.jpg 1
1480.jpg 1
1481.jpg 1
1482.jpg 1
1483.jpg 1
1484.jpg 1
1485.jpg 1
1486.jpg 1
1487.jpg 1
1488.jpg 1
1489.jpg 1
1490.jpg 1
1491.jpg 1
1492.jpg 1
1493.jpg 1
1494.jpg 1
1495.jpg 1
1496.jpg 1
1497.jpg 1
1498.jpg 1
1499.jpg 1
1500.jpg 1
1501.jpg 1
1502.jpg 1
1503.jpg 1
1504.jpg 1
1505.jpg 1
1506.jpg 1
1507.jpg 1
1508.jpg 1
1509.jpg 1
1510.jpg 1
1511.jpg 1
1512.jpg 1
1513.jpg 1
1514.jpg 1
1515.jpg 1
1516.jpg 1
1517.jpg 1
1518.jpg 1
1519.jpg 1
1520.jpg 1
1521.jpg 1
1522.jpg 1
1523.jpg 1
1524.jpg 1
1525.jpg 1
1526.jpg 1
1527.jpg 1
1528.jpg 1
1529.jpg 1
1530.jpg 1
1531.jpg 1
1532.jpg 1
1533.jpg 1
1534.jpg 1
1535.jpg 1
1536.jpg 1
1537.jpg 1
1538.jpg 1
1539.jpg 1
1540.jpg 1
1541.jpg 1
1542.jpg 1
1543.jpg 1
1544.jpg 1
1545.jpg 1
1546.jpg 1
1547.jpg 1
1548.jpg 1
1549.jpg 1
1550.jpg 1
1551.jpg 1
1552.jpg 1
1553.jpg 1
1554.jpg 1
1555.jpg 1
1556.jpg 1
1557.jpg 1
1558.jpg 1
1559.jpg 1
1560.jpg 1
1561.jpg 1
1562.jpg 1
1563.jpg 1
1564.jpg 1
1565.jpg 1
1566.jpg 1
1567.jpg 1
1568.jpg 1
1569.jpg 2
1570.jpg 0
1571.jpg 0
1572.jpg 0
1573.jpg 0
1574.jpg 2
1575.jpg 0
1576.jpg 0
1577.jpg 0
1578.jpg 0
1579.jpg 0
1580.jpg 2
1581.jpg 1
1582.jpg 2
1583.jpg 0
1584.jpg 2
1585.jpg 2
1586.jpg 0
1587.jpg 0
1588.jpg 2
1589.jpg 1
1590.jpg 0
1591.jpg 2
1592.jpg 1
1593.jpg 2
1594.jpg 1
1595.jpg 2
1596.jpg 0
1597.jpg 1
1598.jpg 2
1599.jpg 0
1600.jpg 0
1601.jpg 2
1602.jpg 0
1603.jpg 1
1604.jpg 2
1605.jpg 1
1606.jpg 2
1607.jpg 0
1608.jpg 1
1609.jpg 2
1610.jpg 0
1611.jpg 1
1612.jpg 2
1613.jpg 0
1614.jpg 0
1615.jpg 2
1616.jpg 1
1617.jpg 2
1618.jpg 2
1619.jpg 0
1620.jpg 2
1621.jpg 1
1622.jpg 2
1623.jpg 0
1624.jpg 0
1625.jpg 2
1626.jpg 1
1627.jpg 2
1628.jpg 0
1629.jpg 2
1630.jpg 1
1631.jpg 2
1632.jpg 0
1633.jpg 0
1634.jpg 2
1635.jpg 0
1636.jpg 2
1637.jpg 1
1638.jpg 2
1639.jpg 0
1640.jpg 1
1641.jpg 2
1642.jpg 1
1643.jpg 2
1644.jpg 1
1645.jpg 2
1646.jpg 1
1647.jpg 2
1648.jpg 1
1649.jpg 2
1650.jpg 0
1651.jpg 2
1652.jpg 1
1653.jpg 1
1654.jpg 2
1655.jpg 1
1656.jpg 2
1657.jpg 1
1658.jpg 1
1659.jpg 1
1660.jpg 2
1661.jpg 1
1662.jpg 2
1663.jpg 1
1664.jpg 2
1665.jpg 1
1666.jpg 2
1667.jpg 1
1668.jpg 2
1669.jpg 0
1670.jpg 1
1671.jpg 2
1672.jpg 1
1673.jpg 2
1674.jpg 2
1675.jpg 1
1676.jpg 2
1677.jpg 2
1678.jpg 2
1679.jpg 1
1680.jpg 2
1681.jpg 2
1682.jpg 1
1683.jpg 0
1684.jpg 0
1685.jpg 3
1686.jpg 3
1687.jpg 3
1688.jpg 3
1689.jpg 3
1690.jpg 3
1691.jpg 3
1692.jpg 0
1693.jpg 0
1694.jpg 0
1695.jpg 0
1696.jpg 3
1697.jpg 3
1698.jpg 3
1699.jpg 3
1700.jpg 3
1701.jpg 3
1702.jpg 3
1703.jpg 3
1704.jpg 0
1705.jpg 0
1706.jpg 0
1707.jpg 0
1708.jpg 0
1709.jpg 3
1710.jpg 3
1711.jpg 3
1712.jpg 3
1713.jpg 0
1714.jpg 0
1715.jpg 0
1716.jpg 3
1717.jpg 0
1718.jpg 3
1719.jpg 3
1720.jpg 3
1721.jpg 3
1722.jpg 3
1723.jpg 2
1724.jpg 2
1725.jpg 2
1726.jpg 2
1727.jpg 2
1728.jpg 2
1729.jpg 2
1730.jpg 2
1731.jpg 2
1732.jpg 2
1733.jpg 2
1734.jpg 2
1735.jpg 2
1736.jpg 2
1737.jpg 2
1738.jpg 2
1739.jpg 2
1740.jpg 2
1741.jpg 2
1742.jpg 2
1743.jpg 2
1744.jpg 2
1745.jpg 2
1746.jpg 2
1747.jpg 2
1748.jpg 2
1749.jpg 2
1750.jpg 2
1751.jpg 2
1752.jpg 2
1753.jpg 2
1754.jpg 2
1755.jpg 2
1756.jpg 2
1757.jpg 2
1758.jpg 2
1759.jpg 2
1760.jpg 2
1761.jpg 2
1762.jpg 2
1763.jpg 2
1764.jpg 2
1765.jpg 2
1766.jpg 2
1767.jpg 2
1768.jpg 2
1769.jpg 2
1770.jpg 2
1771.jpg 2
1772.jpg 2
1773.jpg 2
1774.jpg 2
1775.jpg 2
1776.jpg 2
1777.jpg 2
1778.jpg 2
1779.jpg 2
1780.jpg 2
1781.jpg 2
1782.jpg 2
1783.jpg 2
1784.jpg 2
1785.jpg 2
1786.jpg 2
1787.jpg 2
1788.jpg 2
1789.jpg 2
1790.jpg 2
1791.jpg 2
1792.jpg 2
1793.jpg 2
1794.jpg 2
1795.jpg 2
1796.jpg 2
1797.jpg 2
1798.jpg 2
1799.jpg 2
1800.jpg 2
1801.jpg 2
1802.jpg 2
1803.jpg 2
1804.jpg 2
1805.jpg 2
1806.jpg 2
1807.jpg 2
1808.jpg 2
1809.jpg 2
1810.jpg 2
1811.jpg 2
1812.jpg 2
1813.jpg 2
1814.jpg 2
1815.jpg 2
1816.jpg 3
1817.jpg 3
1818.jpg 3
1819.jpg 3
1820.jpg 3
1821.jpg 3
1822.jpg 3
1823.jpg 3
1824.jpg 3
1825.jpg 0
1826.jpg 0
1827.jpg 0
1828.jpg 0
1829.jpg 0
1830.jpg 3
1831.jpg 0
1832.jpg 3
1833.jpg 0
1834.jpg 3
1835.jpg 0
1836.jpg 3
1837.jpg 0
1838.jpg 3
1839.jpg 0
1840.jpg 3
1841.jpg 0
1842.jpg 3
1843.jpg 0
1844.jpg 3
1845.jpg 0
1846.jpg 3
1847.jpg 3
1848.jpg 3
1849.jpg 3
1850.jpg 3
1851.jpg 3
1852.jpg 3
1853.jpg 3
1854.jpg 3
1855.jpg 3
1856.jpg 2
1857.jpg 2
1858.jpg 2
1859.jpg 2
1860.jpg 2
1861.jpg 2
1862.jpg 2
1863.jpg 2
1864.jpg 2
1865.jpg 2
1866.jpg 2
1867.jpg 2
1868.jpg 2
1869.jpg 2
1870.jpg 2
1871.jpg 2
1872.jpg 2
1873.jpg 2
1874.jpg 2
1875.jpg 2
1876.jpg 2
1877.jpg 2
1878.jpg 2
1879.jpg 2
1880.jpg 2
1881.jpg 2
1882.jpg 2
1883.jpg 2
1884.jpg 2
1885.jpg 2
1886.jpg 2
1887.jpg 2
1888.jpg 2
1889.jpg 2
1890.jpg 2
1891.jpg 2
1892.jpg 2
1893.jpg 2
1894.jpg 2
1895.jpg 2
1896.jpg 2
1897.jpg 2
1898.jpg 2
1899.jpg 2
1900.jpg 2
1901.jpg 2
1902.jpg 2
1903.jpg 2
1904.jpg 1
1905.jpg 1
1906.jpg 1
1907.jpg 1
1908.jpg 1
1909.jpg 1
1910.jpg 1
1911.jpg 1
1912.jpg 1
1913.jpg 1
1914.jpg 1
1915.jpg 1
1916.jpg 1
1917.jpg 1
1918.jpg 1
1919.jpg 1
1920.jpg 1
1921.jpg 1
1922.jpg 1
1923.jpg 1
1924.jpg 1
1925.jpg 1
1926.jpg 1
1927.jpg 2
1928.jpg 1
1929.jpg 1
1930.jpg 2
1931.jpg 1
1932.jpg 2
1933.jpg 1
1934.jpg 2
1935.jpg 1
1936.jpg 1
1937.jpg 2
1938.jpg 2
1939.jpg 1
1940.jpg 2
1941.jpg 1
1942.jpg 2
1943.jpg 1
1944.jpg 2
1945.jpg 1
1946.jpg 1
1947.jpg 2
1948.jpg 2
1949.jpg 1
1950.jpg 2
1951.jpg 1
1952.jpg 2
1953.jpg 1
1954.jpg 2
1955.jpg 1
1956.jpg 2
1957.jpg 1
1958.jpg 2
1959.jpg 1
1960.jpg 1
1961.jpg 2
1962.jpg 2
1963.jpg 1
1964.jpg 1
1965.jpg 2
1966.jpg 1
1967.jpg 2
1968.jpg 1
1969.jpg 2
1970.jpg 2
1971.jpg 2
1972.jpg 1
1973.jpg 1
1974.jpg 1
1975.jpg 1
1976.jpg 1
1977.jpg 1
1978.jpg 1
1979.jpg 1
1980.jpg 2
1981.jpg 2
1982.jpg 2
1983.jpg 2
1984.jpg 2
1985.jpg 2
1986.jpg 2
1987.jpg 2
1988.jpg 2
1989.jpg 2
1990.jpg 2
1991.jpg 2
1992.jpg 2
1993.jpg 2
1994.jpg 2
1996.jpg 2
1997.jpg 2
1998.jpg 2
1999.jpg 2
2000.jpg 2
2001.jpg 2
2002.jpg 2
2003.jpg 2
2004.jpg 2
2005.jpg 2
2006.jpg 1
2007.jpg 2
2008.jpg 2
2009.jpg 2
2010.jpg 2
2011.jpg 1
2012.jpg 2
2013.jpg 1
2014.jpg 2
2015.jpg 1
2016.jpg 2
2017.jpg 1
2018.jpg 1
2019.jpg 1
2020.jpg 2
2021.jpg 1
2022.jpg 1
2023.jpg 1
2024.jpg 1
2025.jpg 1
2026.jpg 1
2027.jpg 1
2028.jpg 1
2029.jpg 1
2030.jpg 1
2031.jpg 1
2032.jpg 2
2033.jpg 1
2034.jpg 1
2035.jpg 1
2036.jpg 1
2037.jpg 1
2038.jpg 1
2039.jpg 1
2040.jpg 1
2041.jpg 1
2042.jpg 2
2043.jpg 1
2044.jpg 1
2045.jpg 3
2046.jpg 3
2047.jpg 3
2048.jpg 3
2049.jpg 3
2050.jpg 0
2051.jpg 0
2052.jpg 0
2053.jpg 0
2054.jpg 0
2055.jpg 0
2056.jpg 0
2057.jpg 0
2058.jpg 0
2059.jpg 0
2060.jpg 0
2061.jpg 0
2062.jpg 0
2063.jpg 0
2064.jpg 0
2065.jpg 0
2066.jpg 0
2067.jpg 0
2068.jpg 0
2069.jpg 3
2070.jpg 3
2071.jpg 3
2072.jpg 3
2073.jpg 3
2074.jpg 3
2075.jpg 3
2076.jpg 3
2077.jpg 3
2078.jpg 0
2079.jpg 3
2080.jpg 3
2081.jpg 0
2082.jpg 3
2083.jpg 3
2084.jpg 0
2085.jpg 3
2086.jpg 0
2087.jpg 3
2088.jpg 0
2089.jpg 3
2090.jpg 3
2091.jpg 3
2092.jpg 0
2093.jpg 0
2094.jpg 3
2095.jpg 0
2096.jpg 0
2097.jpg 0
2098.jpg 0
2099.jpg 0
2100.jpg 3
2101.jpg 3
2102.jpg 3
2103.jpg 3
2104.jpg 0
2105.jpg 3
2106.jpg 3
2107.jpg 0
2108.jpg 0
2109.jpg 3
2110.jpg 0
2111.jpg 3
2112.jpg 0
2113.jpg 3
2114.jpg 3
2115.jpg 0
2116.jpg 0
2117.jpg 0
2118.jpg 0
2119.jpg 0
2120.jpg 0
2121.jpg 0
2122.jpg 0
2123.jpg 0
2124.jpg 0
2125.jpg 0
2126.jpg 0
2127.jpg 0
2128.jpg 3
2129.jpg 0
2130.jpg 0
2131.jpg 0
2132.jpg 0
2133.jpg 0
2134.jpg 0
2135.jpg 0
2136.jpg 0
2137.jpg 0
2138.jpg 3
2139.jpg 0
2140.jpg 0
2141.jpg 0
2142.jpg 0
2143.jpg 3
2144.jpg 3
2145.jpg 3
2146.jpg 3
2147.jpg 3
2148.jpg 3
2149.jpg 0
2150.jpg 0
2151.jpg 3
2152.jpg 3
2153.jpg 3
2154.jpg 3
2155.jpg 0
2156.jpg 0
2157.jpg 0
2158.jpg 3
2159.jpg 3
2160.jpg 0
2161.jpg 3
2162.jpg 0
2163.jpg 3
2164.jpg 0
2165.jpg 0
2166.jpg 3
2167.jpg 3
2168.jpg 0
2169.jpg 0
2170.jpg 0
2171.jpg 0
2172.jpg 0
2173.jpg 3
2174.jpg 0
2175.jpg 0
2176.jpg 0
2177.jpg 0
2178.jpg 0
2179.jpg 3
2180.jpg 0
2181.jpg 3
2182.jpg 0
2183.jpg 3
2184.jpg 3
2185.jpg 3
2186.jpg 3
2187.jpg 3
2188.jpg 0
2189.jpg 3
2190.jpg 0
2191.jpg 0
2192.jpg 3
2193.jpg 3
2194.jpg 3
2195.jpg 3
2196.jpg 3
2197.jpg 3
2199.jpg 3
2200.jpg 3
2201.jpg 3
2202.jpg 3
2203.jpg 3
2204.jpg 0
2205.jpg 0